0.0 0.0
1.0 13.388128
2.0 18.645536
3.0 13.011776
4.0 19.10464
4.999 15.193465465465467
5.999 19.431104
6.999 16.34336
8.0 16.619156843156844
9.0 15.732192
9.999 16.537625625625626
11.0 24.067388611388612
11.999 20.769185185185187
12.999 17.793599999999998
13.999 18.419072
14.999 17.788416
15.999 15.404736000000002
17.0 15.351848151848152
17.999 17.725053053053053
18.999 21.363104
19.999 19.195520000000002
21.0 20.285986013986015
21.999 16.375703703703703
23.0 24.17512087912088
23.999 21.956612612612613
24.999 18.613184
26.0 20.22694105894106
27.0 21.147008000000003
27.999 14.983175175175175
28.999 19.421984000000002
30.0 17.560359640359643
31.0 22.829728
32.0 10.007552
33.0 26.032576000000002
33.999 24.666106106106106
35.0 16.50458341658342
35.999 19.203939939939943
36.999 17.480864
37.999 15.194656000000002
38.999 13.372160000000001
39.999 16.380896
40.999 13.825088
42.0 18.282165834165834
43.0 25.105152
43.999 22.70705905905906
44.999 26.932831999999998
46.0 21.600319680319682
46.999 23.565037037037037
47.999 16.920096
48.999 19.820992
49.999 22.27456
51.0 29.265262737262738
51.999 19.387899899899903
53.0 25.284315684315683
53.999 25.356972972972972
54.999 17.049504000000002
55.999 19.62688
56.999 19.874912000000002
57.999 17.966144
58.999 18.429856
59.999 17.68576
60.999 2.404832
61.999 33.225504
62.999 31.661824000000003
64.0 25.058525474525474
65.0 20.797984
65.999 27.898106106106106
66.999 25.202208
67.999 25.698272000000003
68.999 29.213856
69.999 22.171903999999998
70.999 28.922687999999997
71.999 20.133727999999998
73.0 26.491364635364636
74.0 22.635616000000002
75.0 27.570752000000002
75.999 25.22058058058058
76.999 24.339488000000003
77.999 20.069024000000002
79.0 24.498317682317683
79.999 24.687695695695698
81.0 21.848103896103897
81.999 17.034186186186187
83.0 17.549586413586415
84.0 16.165216
85.0 16.839008000000003
85.999 22.178114114114113
87.0 24.611228771228774
87.999 19.24711911911912
88.999 20.996448
89.999 23.927008
90.999 22.746144
91.999 19.993536
92.999 15.949536
94.0 14.716227772227773
94.999 16.50524124124124
96.0 17.25870929070929
96.999 19.54937337337337
98.0 15.168703296703297
98.999 14.920072072072074
99.999 13.952192
100.999 14.769952
102.0 17.037234765234764
102.999 16.149013013013015
103.999 15.6368
105.0 15.89050949050949
105.999 13.784952952952954
106.999 13.512352000000002
107.999 17.157344000000002
108.999 20.015104
110.0 15.901282717282717
111.0 16.28384
111.999 15.620068068068068
112.999 16.49952
113.999 15.809344
114.999 12.487872
115.999 21.0344
116.999 8.050048
117.999 31.673024
119.0 16.187396603396603
119.999 17.70846046046046
121.0 19.26189010989011
121.999 18.368384384384388
123.0 16.692075924075926
123.999 13.202034034034034
124.999 13.967168
125.999 20.315168000000003
126.999 16.876576
127.999 15.394336
128.999 11.377120000000001
129.999 10.708512
130.999 14.105472
131.999 20.419712
132.999 21.40064
133.999 21.201344000000002
134.999 19.168992
135.999 17.927968
136.999 10.309504
137.999 3.07344
139.0 3.6198041958041958
139.999 3.42194994994995
140.999 4.507712000000001
141.999 3.5587199999999997
143.0 4.966457542457542
143.999 4.814478478478479
145.0 6.086873126873127
145.999 9.693725725725725
146.999 12.110432000000001
147.999 12.811392
148.999 13.630976
149.999 12.448896000000001
150.999 11.211200000000002
151.999 11.398688
152.999 9.371296000000001
153.999 10.557536
154.999 3.386176
155.999 22.350464
156.999 12.249792
157.999 17.041984
158.999 20.935392
160.0 13.716747252747252
160.999 17.73728928928929
162.001 15.352878243512974
162.999 12.469675350701404
163.999 16.666464
164.999 13.443328
166.0 13.50316883116883
166.999 15.166686686686687
167.999 17.63952
168.999 18.357472
169.999 15.787776000000001
171.0 16.181386613386614
172.0 16.240704
172.999 20.861981981981984
174.0 20.020395604395606
175.0 18.670240000000003
175.999 18.629285285285285
176.999 16.82864
177.999 20.149696
178.999 20.38176
179.999 15.830752
180.999 15.237952
181.999 20.948128
182.999 17.550752
184.0 11.527352647352647
184.999 2.952072072072072
185.999 31.613599999999998
186.999 13.835488
187.999 23.455583999999998
188.999 17.534784
189.999 17.545568
190.999 25.924736000000003
192.0 21.363308691308692
193.0 22.512928
193.999 17.551631631631633
194.999 16.376384
195.999 23.024
196.999 14.515264
197.999 16.49952
198.999 14.029984
200.0 22.70996203796204
200.999 21.330514514514515
201.999 20.662144
202.999 18.030848000000002
204.0 18.16471528471528
204.999 24.07466666666667
206.0 20.22921078921079
207.0 18.361632
207.999 19.487295295295294
208.999 19.46512
209.999 16.896704000000003
210.999 13.913184
211.999 15.129952
213.0 15.02865134865135
213.999 15.232288288288288
214.999 24.237248
215.999 19.340063999999998
216.999 25.074047999999998
217.999 17.076736
218.999 26.179552
219.999 17.307936
221.0 11.16931068931069
222.0 22.398367999999998
